{
  "project_info": {
    "project_number": "938342137064",
    "firebase_url": "https://messenger-2c7f7.firebaseio.com",
    "project_id": "messenger-2c7f7",
    "storage_bucket": "messenger-2c7f7.appspot.com"
  },
  "client": [
    {
      "client_info": {
        "mobilesdk_app_id": "1:938342137064:android:a0156d757901d7c2",
        "android_client_info": {
          "package_name": "messenger.social.messenger.com.messenger"
        }
      },
      "oauth_client": [
        {
          "client_id": "938342137064-51ms8a0hd6m62rjm64oi1fs0t47kut0g.apps.googleusercontent.com",
          "client_type": 3
        }
      ],
      "api_key": [
        {
          "current_key": "AIzaSyDqBwOcdpENmZgwvYnUggyZzZNEC7mKb0w"
        }
      ],
      "services": {
        "analytics_service": {
          "status": 1
        },
        "appinvite_service": {
          "status": 1,
          "other_platform_oauth_client": []
        },
        "ads_service": {
          "status": 2
        }
      }
    }
  ],
  "configuration_version": "1"
}